128 -32 -32 776
40 -40 896
-80 -80 256 -80 -400 56
992
-800 184
-80 80 -80 80 -80 -80 80 -80 288
-320 664
-80 -96 184 -96 504
-96 200 -96 -400 168
-8 -8 -8 -8 -8 -8 -8 -8 -8 -8 -8 -8 -8 -8 -8 -8 -8 -8 -8 -8 -8 -8 -8 -8 -8 -8 -8 -8 -8 -8 -8 -8 -8 -8 -8 -8 -8 -8 -8 -8 -8 -8 -8 -8 -8 -8 -8 -8 -8 -8 -8 -8 -8 -8 -8 -8 -8 -8 -8 -8 -8 -16
