8 -24 40 -56 -72 -160 -56 520
-40 -8 -8 -24 880
40 -8 -24 -8 -24 848
-992
-64 -8 -8 -56 -8 8 -8 -8 -8 744
56 -40 -16 -640 208
-800 -40 136
152 -48 -56 -64 -72 -80 472
-160 568 -8 232
480 -16 -24 176 -8 -8 -16 -32 -24 -24 -24 72
24 -8 8 -24 896
-40 -40 136 -40 -64 -72 -8 536
